…
```r
> (ban_tb <- tibble(dia = 1:30))
```

```
# A tibble: 30 x 1
     dia
   <int>
 1     1
 2     2
 3     3
 4     4
 5     5
 6     6
 7     7
 8     8
 9     9
10    10
# ... with 20 more rows
```
…
```r
> (ban_tb <- tibble(nome_da_priemira_coluna = 1:25,
+                   nome_da_segunda_coluna = 1:25,
+                   nome_da_terceira_coluna = 1:25,
+                   nome_da_quarta_coluna = 1:25,
+                   nome_da_quinta_coluna = 1:25,
+                   nome_da_sexta_coluna = 1:25,
+                   nome_da_oitava_coluna = 1:25))
```

```
# A tibble: 25 x 7
   nome_da_priemira_col… nome_da_segunda_co… nome_da_terceira_co…
                   <int>               <int>                <int>
 1                     1                   1                    1
 2                     2                   2                    2
 3                     3                   3                    3
 4                     4                   4                    4
 5                     5                   5                    5
 6                     6                   6                    6
 7                     7                   7                    7
 8                     8                   8                    8
 9                     9                   9                    9
10                    10                  10                   10
# ... with 15 more rows, and 4 more variables:
#   nome_da_quarta_coluna <int>, nome_da_quinta_coluna <int>,
#   nome_da_sexta_coluna <int>, nome_da_oitava_coluna <int>
```
…
