…
A função `group_by` atribui novas *classes* ao objeto resultante e uma das consequências disso é que o padrão de apresentação do data frame resultante é diferente: o tipo de cada coluna aparece abaixo do nome (`<chr>`: caractere, `<int>`: inteiro, etc.) e só as 10 primeiras linhas são mostradas. Para obtermos a apresentação padrão dos data frames, devemos coercionar para essa estrutura.


```r
> (doms <- domicilios %>%
+   group_by(municipio) %>%
+   mutate(prop_caes = caes / sum(caes)))
```

```
Source: local data frame [30 x 5]
Groups: municipio [3]

   municipio    id  caes gatos prop_caes
       <chr> <int> <int> <int>     <dbl>
1         a1     1     0     0 0.0000000
2         a1     3     0     0 0.0000000
3         a1     2     2     0 0.3333333
4         a1     4     0     0 0.0000000
5         a1     5     1     0 0.1666667
6         a1     6     1     0 0.1666667
7         a1     7     0     2 0.0000000
8         a1     8     0     0 0.0000000
9         a1     9     1     1 0.1666667
10        a1    10     1     0 0.1666667
# ... with 20 more rows
```
…
Se queremos ajustar uma regressão linear dentro de cada grupo, as funções do `dplyr` vistas até o momento não são suficientes. Entretanto, a função `do` permite aplicar operações arbitrárias e retorna um data frame. Por exemplo, podemos aplicar a função `head` dentro de cada grupo.


```r
> reg %>%
+   group_by(grupo) %>%
+   do(head(.))
```

```
Source: local data frame [60 x 3]
Groups: grupo [10]

   grupo         y        x
   <int>     <dbl>    <dbl>
1      1  5.420216 52.16755
2      1 10.630271 44.57507
3      1  7.782182 58.91145
4      1 27.625572 55.95981
5      1 24.054606 66.35618
6      1 23.233784 56.89275
7      2  9.477180 43.36257
8      2 24.875976 43.76274
9      2 35.672370 49.20368
10     2  7.730713 54.35625
# ... with 50 more rows
```
…
